OCRFiles.Controllers.HomeController 09:25:08
Trainer - StartIndex no puede ser inferior a cero.
Nombre del parámetro: startIndex

OCRFiles.Controllers.HomeController 09:28:12
Trainer - StartIndex no puede ser inferior a cero.
Nombre del parámetro: startIndex

OCRFiles.Controllers.HomeController 09:31:55
Trainer - StartIndex no puede ser inferior a cero.
Nombre del parámetro: startIndex

OCRFiles.Controllers.HomeController 09:33:59
Trainer - StartIndex no puede ser inferior a cero.
Nombre del parámetro: startIndex

OCRFiles.Controllers.HomeController 10:07:57
OCR - IronOcr License Exception.  To deploy IronOcr please apply a commercial license key or free 30 day deployment trial key at  http://ironsoftware.com/csharp/ocr/licensing/.  Keys may be applied by setting IronOcr.License.LicenseKey at any point in your application before IronOCR is used.

OCRFiles.Controllers.HomeController 10:15:08
Trainer - StartIndex no puede ser inferior a cero.
Nombre del parámetro: startIndex

